N       L1      L2      Linfty
256     9.506861388961706e-07   4.243105727651783e-06   5.937663729649323e-05
384     1.883640711393034e-07   8.410332789140848e-07   1.179640884418909e-05
512     5.966495376070744e-08   2.664200422111714e-07   3.738379716899942e-06