0.0009765625	0.46947482228279114
0.0087890625	0.4167632758617401
0.0244140625	0.38647177815437317
0.0478515625	0.3854932487010956
0.0791015625	0.41074278950691223
0.1181640625	0.449372261762619
0.1650390625	0.4831905663013458
0.2197265625	0.4984912574291229
0.2822265625	0.5024891197681427
0.3525390625	0.5475673377513885
0.4306640625	0.7645368874073029
0.5166015625	0.34360978007316667
0.6103515625	0.3501367866992944
0.7119140625	0.4916677176952361
0.8212890625	0.5353355705738065
0.9384765625	0.9646568000316604
