0 5.981081337800861e-10
0.015625 3.379086416549785e-10
0.03125 1.414316961253503e-10
0.046875 1.254275966065464e-11
0.0625 -8.011697742878544e-11
0.078125 -1.300288531012505e-10
0.09375 -1.603379035312498e-10
0.109375 -2.102161277246862e-10
0.125 -2.592801606313652e-10
0.140625 -2.989080194554716e-10
0.15625 -3.271545606779329e-10
0.171875 -3.30112398344721e-10
0.1875 -3.149862169616478e-10
0.203125 -3.144785232646857e-10
0.21875 -2.755649963161263e-10
0.234375 6.232740426614567e-11
0.25 3.603210586476386e-10
0.265625 3.650385615429778e-10
0.28125 6.499204616332241e-10
0.296875 6.411343522326217e-09
0.3125 2.033436928051039e-08
0.328125 3.398969600033837e-08
0.34375 4.220334822553247e-08
0.359375 4.689214681809716e-08
0.375 5.286175331566804e-08
0.390625 6.003228304531572e-08
0.40625 6.053118400022591e-08
0.421875 3.98960344601467e-08
0.4375 1.424473992517775e-08
0.453125 4.218532980312623e-09
0.46875 -5.011306471842187e-09
0.484375 -2.748957244851044e-08
0.5 3.876162802419421e-08
0.515625 4.355463523329071e-07
0.53125 -1.635630508793643e-06
0.546875 -1.42490710086895e-05
0.5625 -2.45631145563104e-05
0.578125 -2.599663784460396e-05
0.59375 -3.082281227815357e-05
0.609375 -8.172892834346693e-05
0.625 -4.527313003484795e-05
0.640625 0.001328060407333337
0.65625 0.003761021628215792
0.671875 0.004511302509374893
0.6875 0.001909737751458439
0.703125 -0.002248491100637963
0.71875 -0.00391558164134982
0.734375 -0.004649744665279222
0.75 -0.009233679116362492
0.765625 -0.01093613332321233
0.78125 0.09512191107263444
0.796875 0.3737595791438943
0.8125 0.6611688715556083
0.828125 0.8646401595345988
0.84375 0.9711492344498001
0.859375 1.009989660816106
0.875 1.016303795120946
0.890625 1.012435946472417
0.90625 1.007879097903531
0.921875 1.004605663191856
0.9375 1.002192936866445
0.953125 1.000364223606285
0.96875 0.9992570717543068
0.984375 0.9989000342046082
1 0.9988476086448932
1.015625 0.9981566333612067
1.03125 0.9965197946184602
1.046875 0.9959490806902073
1.0625 0.9983005766641957
1.078125 1.002217174028865
1.09375 1.00378914990193
1.109375 1.004490301736017
1.125 1.009048414235602
1.140625 1.010788494320116
1.15625 0.9050040716186996
1.171875 0.6264256646155478
1.1875 0.3389208222260944
1.203125 0.1353657325051574
1.21875 0.02884387052769109
1.234375 -0.009975265459767653
1.25 -0.01629364183323762
1.265625 -0.01246262520122828
1.28125 -0.007892213674534115
1.296875 -0.004551903704469043
1.3125 -0.002129166831450432
1.328125 -0.0003978978264278487
1.34375 0.0006128159711306498
1.359375 0.0009619141673974824
1.375 0.0008447765910829625
1.390625 0.0004700997096699724
1.40625 0.0001603335099313382
1.421875 5.807284206391826e-06
1.4375 -3.887837481633523e-05
1.453125 -3.695075187513547e-05
1.46875 -2.336515393235666e-05
1.484375 -1.114880080794668e-05
1.5 -2.588033867179794e-06
1.515625 2.471836837926308e-06
1.53125 4.654305880388746e-06
1.546875 4.907863615161668e-06
1.5625 4.016532975360851e-06
1.578125 2.779473426567553e-06
1.59375 1.642856211299226e-06
1.609375 7.450124900715107e-07
1.625 1.260720450037679e-07
1.640625 -2.141932958661293e-07
1.65625 -3.322534545560085e-07
1.671875 -3.248576281464441e-07
1.6875 -2.704636159714976e-07
1.703125 -2.187599933335778e-07
1.71875 -1.691355772260552e-07
1.734375 -1.170211894580296e-07
1.75 -7.128875351216694e-08
1.765625 -4.054748761673657e-08
1.78125 -2.295465159952442e-08
1.796875 -1.211936089757506e-08
1.8125 -4.611532134238924e-09
1.828125 3.174940166967019e-10
1.84375 2.777692147025665e-09
1.859375 3.510037140879331e-09
1.875 3.656258017637003e-09
1.890625 3.511265589277064e-09
1.90625 3.290249807334527e-09
1.921875 2.922803573830774e-09
1.9375 2.190086055240966e-09
1.953125 1.488165520044794e-09
1.96875 1.098995544134294e-09
1.984375 8.609531355484778e-10
