0.067	0.0681875	0.06925	0.0701875	0.07100000000000001	0.0716875	0.07225000000000001	0.0726875	0.073	0.07318750000000002	0.07325	0.07318750000000002	0.073	0.07268750000000002	0.07225	0.0716875	0.07100000000000001	0.07018750000000001	0.06925000000000002	0.06818750000000001	0.06700000000000002	0.06568750000000001	0.06425000000000002	0.06268750000000001	0.061000000000000026
0.057999999999999996	0.08106249999999998	0.10425	0.12756249999999997	0.15100000000000002	0.17456249999999998	0.19825	0.2220625	0.246	0.2700625	0.29424999999999996	0.31856249999999997	0.343	0.36756249999999996	0.39225000000000004	0.41706249999999995	0.44199999999999995	0.4670625	0.4922500000000001	0.5175624999999999	0.5429999999999999	0.5685625	0.59425	0.6200625000000001	0.6459999999999999
0.0818125	0.08281249999999998	0.0836875	0.0844375	0.0850625	0.0855625	0.0859375	0.0861875	0.08631249999999999	0.0863125	0.0861875	0.0859375	0.08556249999999999	0.0850625	0.0844375	0.08368749999999998	0.0828125	0.08181250000000001	0.0806875	0.0794375	0.0780625	0.07656249999999999	0.0749375	0.07318749999999999	0.07131250000000001
0.051937500000000004	0.07499999999999998	0.0981875	0.12149999999999998	0.1449375	0.16849999999999998	0.1921875	0.216	0.2399375	0.264	0.2881875	0.3125	0.33693750000000006	0.3615	0.3861875	0.411	0.4359375	0.461	0.48618750000000005	0.5115	0.5369375	0.5625	0.5881875	0.614	0.6399374999999999
0.09675	0.0975625	0.09825	0.0988125	0.09925	0.0995625	0.09974999999999999	0.0998125	0.09975	0.0995625	0.09925	0.0988125	0.09825	0.0975625	0.09674999999999999	0.09581250000000001	0.09475	0.09356249999999999	0.09225	0.0908125	0.08925	0.0875625	0.08575	0.0838125	0.08175
0.046750000000000014	0.0698125	0.093	0.1163125	0.13975000000000004	0.16331250000000003	0.18700000000000003	0.21081250000000004	0.23475000000000001	0.2588125	0.28300000000000003	0.30731250000000004	0.33175000000000004	0.35631250000000003	0.38100000000000006	0.4058125	0.4307500000000001	0.45581250000000006	0.48100000000000004	0.5063124999999999	0.53175	0.5573125000000001	0.5830000000000001	0.6088125000000001	0.6347499999999999
0.11181249999999998	0.11243749999999998	0.11293749999999998	0.11331249999999998	0.11356249999999998	0.11368749999999998	0.11368749999999998	0.11356249999999998	0.11331249999999998	0.11293749999999998	0.11243749999999998	0.11181250000000001	0.11106249999999997	0.11018749999999997	0.10918749999999999	0.10806249999999998	0.10681249999999998	0.10543749999999998	0.10393749999999999	0.1023125	0.10056249999999999	0.09868749999999998	0.0966875	0.0945625	0.09231249999999999
0.04243750000000001	0.0655	0.0886875	0.112	0.13543750000000004	0.15900000000000003	0.18268750000000003	0.20650000000000004	0.23043750000000002	0.2545	0.27868750000000003	0.30300000000000005	0.32743750000000005	0.35200000000000004	0.37668750000000006	0.4015	0.4264375000000001	0.45150000000000007	0.47668750000000004	0.502	0.5274375	0.553	0.5786875	0.6045	0.6304375
0.127	0.1274375	0.12775	0.1279375	0.128	0.1279375	0.12775	0.1274375	0.127	0.1264375	0.12575	0.12493750000000002	0.124	0.12293750000000002	0.12175000000000002	0.1204375	0.11900000000000002	0.11743750000000003	0.11575000000000003	0.11393750000000001	0.11200000000000004	0.10993750000000001	0.10775000000000004	0.1054375	0.10300000000000005
0.03900000000000001	0.06206249999999999	0.08524999999999999	0.10856249999999999	0.13200000000000003	0.15556250000000002	0.17925000000000002	0.20306250000000003	0.227	0.2510625	0.27525	0.2995625	0.32400000000000007	0.3485625	0.3732500000000001	0.3980625	0.42300000000000004	0.44806250000000003	0.47325000000000006	0.49856249999999996	0.524	0.5495625000000001	0.57525	0.6010625	0.627
0.14231249999999998	0.14256249999999998	0.1426875	0.1426875	0.14256249999999998	0.1423125	0.1419375	0.1414375	0.1408125	0.1400625	0.1391875	0.1381875	0.1370625	0.1358125	0.1344375	0.1329375	0.1313125	0.1295625	0.12768749999999998	0.12568749999999998	0.12356250000000002	0.12131249999999999	0.1189375	0.11643749999999997	0.11381250000000002
0.036437500000000005	0.0595	0.0826875	0.10599999999999998	0.1294375	0.153	0.1766875	0.2005	0.2244375	0.24850000000000003	0.2726875	0.297	0.32143750000000004	0.346	0.37068750000000006	0.3955	0.4204375	0.44550000000000006	0.47068750000000004	0.496	0.5214375	0.547	0.5726875	0.5985	0.6244375
0.15775	0.1578125	0.15775	0.1575625	0.15725	0.1568125	0.15625	0.15556250000000002	0.15475	0.15381250000000002	0.15275	0.15156250000000002	0.15025	0.1488125	0.14725	0.1455625	0.14375000000000002	0.1418125	0.13975	0.1375625	0.13525	0.1328125	0.13025000000000003	0.1275625	0.12475000000000001
0.03475	0.05781249999999999	0.08099999999999999	0.10431249999999999	0.12775000000000003	0.15131250000000002	0.17500000000000002	0.19881250000000003	0.22275	0.24681250000000002	0.271	0.2953125	0.31975000000000003	0.3443125	0.36900000000000005	0.3938125	0.41875000000000007	0.44381250000000005	0.46900000000000003	0.4943125	0.5197499999999999	0.5453125	0.571	0.5968125000000001	0.6227499999999999
0.1733125	0.1731875	0.1729375	0.1725625	0.1720625	0.1714375	0.1706875	0.1698125	0.1688125	0.1676875	0.1664375	0.1650625	0.1635625	0.16193749999999998	0.16018749999999998	0.15831250000000002	0.15631250000000002	0.15418749999999998	0.1519375	0.14956250000000001	0.14706250000000004	0.1444375	0.1416875	0.1388125	0.1358125
0.0339375	0.05699999999999999	0.0801875	0.10349999999999998	0.1269375	0.1505	0.1741875	0.198	0.2219375	0.246	0.27018749999999997	0.2945	0.31893750000000004	0.34349999999999997	0.36818750000000006	0.39299999999999996	0.4179375	0.44300000000000006	0.46818750000000003	0.4935	0.5189374999999999	0.5445	0.5701875	0.5960000000000001	0.6219374999999999
0.189	0.18868749999999998	0.18825000000000003	0.18768749999999998	0.18700000000000003	0.1861875	0.18525000000000003	0.1841875	0.183	0.1816875	0.18025	0.1786875	0.177	0.1751875	0.17325	0.1711875	0.16899999999999998	0.16668750000000002	0.16424999999999998	0.1616875	0.159	0.1561875	0.15325	0.1501875	0.14700000000000002
0.034	0.057062499999999995	0.08024999999999999	0.10356249999999997	0.12700000000000003	0.1505625	0.17425000000000002	0.1980625	0.222	0.24606250000000002	0.27025	0.2945625	0.31900000000000006	0.3435625	0.36825	0.3930625	0.41800000000000004	0.4430625	0.46825	0.49356249999999996	0.5189999999999999	0.5445625000000001	0.57025	0.5960625	0.6219999999999999
0.20481249999999998	0.20431249999999998	0.20368750000000002	0.2029375	0.2020625	0.20106249999999998	0.19993750000000002	0.1986875	0.19731249999999997	0.19581249999999997	0.1941875	0.1924375	0.19056249999999997	0.18856250000000002	0.1864375	0.18418749999999995	0.1818125	0.1793125	0.1766875	0.1739375	0.17106250000000003	0.1680625	0.1649375	0.16168749999999996	0.15831250000000002
0.034937499999999996	0.05799999999999998	0.08118749999999998	0.10449999999999997	0.1279375	0.1515	0.1751875	0.199	0.22293749999999998	0.247	0.27118749999999997	0.2955	0.31993750000000004	0.3445	0.3691875	0.39399999999999996	0.4189375	0.444	0.46918750000000004	0.49449999999999994	0.5199374999999999	0.5455	0.5711875	0.5970000000000001	0.6229374999999999
0.22074999999999997	0.22006249999999997	0.21925	0.2183125	0.21725	0.2160625	0.21474999999999997	0.2133125	0.21175	0.2100625	0.20825000000000002	0.2063125	0.20425	0.20206249999999998	0.19974999999999996	0.19731250000000003	0.19475	0.1920625	0.18924999999999997	0.18631249999999996	0.18325000000000002	0.18006250000000001	0.17675	0.17331249999999998	0.16974999999999996
0.03674999999999999	0.05981249999999998	0.08299999999999998	0.10631249999999996	0.12975	0.1533125	0.177	0.2008125	0.22474999999999998	0.2488125	0.27299999999999996	0.2973125	0.32175000000000004	0.34631249999999997	0.371	0.39581249999999996	0.42075	0.4458125	0.471	0.49631249999999993	0.5217499999999999	0.5473125	0.573	0.5988125000000001	0.6247499999999999
0.23681249999999998	0.2359375	0.2349375	0.23381249999999998	0.23256250000000003	0.2311875	0.2296875	0.22806250000000003	0.22631249999999997	0.2244375	0.2224375	0.22031250000000002	0.2180625	0.2156875	0.2131875	0.21056249999999999	0.20781249999999998	0.20493749999999997	0.20193749999999996	0.1988125	0.19556250000000003	0.19218749999999998	0.1886875	0.18506250000000002	0.1813125
0.03943749999999998	0.06249999999999997	0.08568749999999997	0.10899999999999996	0.13243749999999999	0.15599999999999997	0.17968749999999997	0.2035	0.22743749999999996	0.2515	0.2756875	0.3	0.32443750000000005	0.349	0.3736875	0.39849999999999997	0.4234375	0.4485	0.4736875	0.49899999999999994	0.5244374999999999	0.5499999999999999	0.5756874999999999	0.6015	0.6274374999999999
0.253	0.25193750000000004	0.25075000000000003	0.24943750000000003	0.24800000000000003	0.24643750000000003	0.24475000000000002	0.24293750000000003	0.241	0.23893750000000005	0.23675	0.23443750000000005	0.23200000000000004	0.22943750000000004	0.22675000000000006	0.2239375	0.22100000000000006	0.21793750000000006	0.21475000000000005	0.21143750000000003	0.20800000000000007	0.20443750000000002	0.20075000000000007	0.19693750000000002	0.19300000000000012
0.04299999999999998	0.06606249999999997	0.08924999999999997	0.11256249999999995	0.136	0.15956249999999997	0.18325	0.20706249999999998	0.23099999999999998	0.25506249999999997	0.27924999999999994	0.30356249999999996	0.328	0.35256249999999995	0.37725000000000003	0.40206249999999993	0.427	0.4520625	0.47725	0.5025624999999999	0.5279999999999999	0.5535625	0.5792499999999999	0.6050625000000001	0.6309999999999999
0.26931249999999995	0.2680625	0.26668749999999997	0.2651875	0.26356250000000003	0.26181249999999995	0.25993750000000004	0.2579375	0.25581249999999994	0.2535625	0.25118749999999995	0.24868749999999995	0.24606249999999996	0.2433125	0.2404375	0.23743749999999994	0.23431249999999995	0.2310625	0.22768749999999996	0.2241875	0.2205625	0.21681249999999996	0.2129375	0.20893749999999997	0.2048125
0.047437499999999994	0.07049999999999998	0.09368749999999998	0.11699999999999997	0.1404375	0.16399999999999998	0.18768749999999998	0.2115	0.23543749999999997	0.25949999999999995	0.2836875	0.308	0.3324375	0.357	0.3816875	0.4065	0.43143750000000003	0.4565	0.4816875	0.5069999999999999	0.5324374999999999	0.5579999999999999	0.5836874999999999	0.6095	0.6354374999999999
0.28575	0.28431249999999997	0.28275000000000006	0.2810625	0.27925000000000005	0.2773125	0.27525	0.27306250000000004	0.27075	0.2683125	0.26575000000000004	0.26306250000000003	0.26025	0.2573125	0.25425000000000003	0.2510625	0.24775	0.24431250000000002	0.24075000000000002	0.2370625	0.23325	0.22931250000000003	0.22525000000000003	0.2210625	0.21675
0.05274999999999999	0.07581249999999998	0.09899999999999999	0.12231249999999996	0.14575	0.16931249999999998	0.193	0.2168125	0.24075	0.2648125	0.289	0.3133125	0.33775000000000005	0.3623125	0.387	0.41181249999999997	0.43675	0.4618125	0.487	0.5123125	0.53775	0.5633125	0.589	0.6148125	0.6407499999999999
0.3023125	0.3006875	0.2989375	0.29706249999999995	0.2950625	0.29293749999999996	0.29068749999999993	0.2883125	0.28581249999999997	0.2831875	0.28043749999999995	0.2775625	0.2745625	0.27143749999999994	0.26818749999999997	0.2648125	0.2613125	0.25768749999999996	0.2539375	0.25006249999999997	0.24606250000000002	0.24193749999999997	0.2376875	0.23331250000000003	0.2288125
0.058937499999999976	0.08199999999999996	0.10518749999999996	0.12849999999999995	0.15193749999999998	0.17549999999999996	0.19918749999999996	0.22299999999999998	0.24693749999999995	0.27099999999999996	0.29518749999999994	0.31949999999999995	0.3439375	0.36849999999999994	0.39318749999999997	0.4179999999999999	0.4429375	0.46799999999999997	0.49318749999999995	0.5185	0.5439374999999999	0.5694999999999999	0.5951875	0.621	0.6469374999999998
0.31899999999999995	0.31718749999999996	0.31525	0.31318749999999995	0.311	0.30868749999999995	0.3062499999999999	0.30368749999999994	0.30099999999999993	0.2981875	0.29524999999999996	0.2921875	0.289	0.2856874999999999	0.28224999999999995	0.2786875	0.27499999999999997	0.2711874999999999	0.26724999999999993	0.26318749999999996	0.259	0.25468749999999996	0.25025	0.24568749999999998	0.24099999999999996
0.06599999999999998	0.08906249999999996	0.11224999999999997	0.13556249999999995	0.15899999999999997	0.18256249999999996	0.20625	0.23006249999999998	0.25399999999999995	0.2780625	0.30224999999999996	0.3265625	0.351	0.37556249999999997	0.40025	0.42506249999999995	0.44999999999999996	0.4750625	0.50025	0.5255624999999999	0.5509999999999999	0.5765625	0.60225	0.6280625	0.6539999999999999
0.3358125	0.33381249999999996	0.3316875	0.3294375	0.32706250000000003	0.32456250000000003	0.32193750000000004	0.3191875	0.3163125	0.31331250000000005	0.31018749999999995	0.30693750000000003	0.30356249999999996	0.3000625	0.2964375	0.2926875	0.2888125	0.2848125000000001	0.2806875	0.2764375	0.27206250000000004	0.26756250000000004	0.2629375	0.2581875	0.2533125000000001
0.07393749999999999	0.09699999999999998	0.12018749999999997	0.14349999999999996	0.1669375	0.19049999999999997	0.21418749999999998	0.238	0.2619375	0.286	0.31018749999999995	0.33449999999999996	0.3589375	0.38349999999999995	0.4081875	0.43299999999999994	0.4579375	0.483	0.5081875	0.5334999999999999	0.5589374999999999	0.5844999999999999	0.6101874999999999	0.636	0.6619374999999998
0.35275000000000006	0.3505625	0.34825000000000006	0.3458125000000001	0.3432500000000001	0.34056250000000005	0.33775	0.33481250000000007	0.33175	0.32856250000000004	0.32525000000000004	0.32181250000000006	0.31825000000000003	0.3145625	0.31075	0.3068125000000001	0.3027500000000001	0.2985625	0.29425	0.2898125000000001	0.2852500000000001	0.28056250000000005	0.27575000000000005	0.27081250000000007	0.26575000000000004
0.08274999999999999	0.10581249999999998	0.12899999999999998	0.15231249999999996	0.17575	0.19931249999999998	0.22299999999999998	0.2468125	0.27075	0.2948125	0.31899999999999995	0.34331249999999996	0.36775	0.39231249999999995	0.417	0.44181249999999994	0.46675	0.4918125	0.517	0.5423125	0.5677499999999999	0.5933124999999999	0.619	0.6448125	0.6707499999999998
0.36981249999999993	0.3674375	0.36493749999999997	0.3623125	0.3595625	0.35668749999999994	0.35368749999999993	0.3505625	0.34731249999999997	0.3439375	0.34043749999999995	0.33681249999999996	0.3330625	0.3291874999999999	0.32518749999999996	0.3210625	0.31681249999999994	0.3124375	0.3079375	0.3033125	0.2985625	0.29368749999999993	0.28868750000000004	0.28356249999999994	0.27831249999999996
0.09243749999999998	0.11549999999999996	0.13868749999999996	0.16199999999999995	0.1854375	0.20899999999999996	0.2326875	0.2565	0.28043749999999995	0.3045	0.32868749999999997	0.353	0.37743750000000004	0.40199999999999997	0.4266875	0.45149999999999996	0.47643749999999996	0.5015000000000001	0.5266875000000001	0.5519999999999999	0.5774374999999999	0.603	0.6286875	0.6545000000000001	0.6804374999999999
0.38699999999999996	0.38443749999999993	0.38175	0.3789374999999999	0.376	0.3729374999999999	0.3697499999999999	0.3664374999999999	0.3629999999999999	0.35943749999999997	0.3557499999999999	0.35193749999999996	0.34799999999999986	0.34393749999999995	0.33974999999999994	0.3354375	0.33099999999999996	0.32643749999999994	0.3217499999999999	0.3169375	0.312	0.3069375	0.30175	0.2964374999999999	0.2909999999999999
0.103	0.12606249999999997	0.14924999999999997	0.17256249999999995	0.196	0.21956249999999997	0.24325	0.2670625	0.291	0.31506249999999997	0.33924999999999994	0.3635625	0.38800000000000007	0.4125625	0.43725	0.4620625	0.487	0.5120625	0.5372500000000001	0.5625625	0.588	0.6135625	0.63925	0.6650625	0.691
0.40431249999999996	0.4015625	0.39868750000000003	0.39568749999999997	0.39256250000000004	0.38931249999999995	0.3859375	0.3824375	0.37881249999999994	0.37506249999999997	0.3711875	0.3671875	0.3630624999999999	0.35881250000000003	0.35443749999999996	0.34993749999999996	0.3453125	0.34056250000000005	0.33568749999999997	0.33068749999999997	0.32556250000000003	0.3203125	0.31493750000000004	0.3094375	0.3038125000000001
0.1144375	0.13749999999999998	0.16068749999999998	0.18399999999999997	0.2074375	0.23099999999999998	0.2546875	0.2785	0.30243749999999997	0.3265	0.3506875	0.375	0.39943750000000006	0.424	0.4486875	0.4735	0.4984375	0.5235000000000001	0.5486875000000001	0.574	0.5994375	0.625	0.6506875	0.6765000000000001	0.7024374999999999
0.42174999999999996	0.4188124999999999	0.41574999999999995	0.4125625	0.40925	0.40581249999999996	0.40225	0.3985625	0.39474999999999993	0.39081249999999995	0.3867499999999999	0.3825625	0.3782499999999999	0.37381250000000005	0.36925	0.36456249999999996	0.3597499999999999	0.3548125	0.34974999999999995	0.34456249999999994	0.33925	0.33381249999999996	0.32825000000000004	0.3225625	0.31675
0.12674999999999997	0.14981249999999996	0.17299999999999996	0.19631249999999995	0.21974999999999997	0.24331249999999996	0.26699999999999996	0.2908125	0.31475	0.33881249999999996	0.36299999999999993	0.38731249999999995	0.41175	0.43631249999999994	0.461	0.4858125	0.5107499999999999	0.5358125	0.561	0.5863124999999999	0.6117499999999999	0.6373125	0.6629999999999999	0.6888125	0.7147499999999999
0.4393125	0.4361875	0.4329375000000001	0.42956249999999996	0.42606250000000007	0.4224375	0.4186875	0.4148125000000001	0.4108124999999999	0.40668750000000004	0.4024375	0.3980625000000001	0.3935625	0.3889375	0.38418749999999996	0.37931250000000005	0.37431250000000005	0.3691875	0.3639375	0.35856250000000006	0.3530625	0.34743749999999995	0.34168750000000003	0.3358125	0.3298125
0.1399375	0.16299999999999998	0.18618749999999998	0.20949999999999996	0.2329375	0.2565	0.2801875	0.304	0.3279375	0.352	0.37618749999999995	0.40049999999999997	0.4249375	0.44949999999999996	0.4741875	0.49899999999999994	0.5239375	0.549	0.5741875000000001	0.5994999999999999	0.6249374999999999	0.6505	0.6761874999999999	0.7020000000000001	0.7279374999999999
0.45699999999999996	0.4536874999999999	0.45024999999999993	0.4466874999999999	0.443	0.4391874999999999	0.43524999999999986	0.43118749999999995	0.42699999999999994	0.42268749999999994	0.4182499999999999	0.4136875	0.4089999999999999	0.4041874999999999	0.39924999999999994	0.3941875	0.389	0.38368749999999996	0.3782499999999999	0.37268749999999995	0.367	0.3611875	0.35524999999999995	0.34918749999999993	0.3429999999999999
0.15399999999999997	0.17706249999999993	0.20024999999999993	0.22356249999999994	0.24699999999999997	0.2705625	0.29424999999999996	0.31806249999999997	0.34199999999999997	0.36606249999999996	0.39024999999999993	0.4145625	0.43900000000000006	0.46356249999999993	0.48825	0.5130625	0.538	0.5630625	0.58825	0.6135624999999999	0.6389999999999999	0.6645625	0.69025	0.7160625	0.7419999999999999
0.47481249999999997	0.4713124999999999	0.46768750000000003	0.4639375	0.4600625	0.4560625	0.4519375000000001	0.44768749999999996	0.44331249999999994	0.43881250000000005	0.43418750000000006	0.4294375	0.42456249999999995	0.4195625	0.41443749999999996	0.4091875	0.4038125	0.3983125	0.3926875	0.3869375	0.38106249999999997	0.37506249999999997	0.36893750000000003	0.36268750000000005	0.35631250000000003
0.16893749999999996	0.19199999999999995	0.21518749999999995	0.23849999999999996	0.2619375	0.2855	0.30918749999999995	0.33299999999999996	0.35693749999999996	0.38099999999999995	0.4051875	0.4295	0.45393750000000005	0.4785	0.5031875	0.528	0.5529375000000001	0.5780000000000001	0.6031875	0.6285	0.6539375	0.6795	0.7051875	0.7310000000000001	0.7569374999999999
0.49274999999999997	0.48906249999999996	0.48525	0.4813124999999999	0.47725	0.4730625	0.46875	0.46431249999999996	0.45975	0.4550625	0.45025	0.4453125	0.4402499999999999	0.43506249999999996	0.42974999999999997	0.4243124999999999	0.41874999999999996	0.4130625	0.40725	0.4013124999999999	0.39525	0.3890625	0.38275	0.37631249999999994	0.3697500000000001
0.18474999999999991	0.2078124999999999	0.23099999999999993	0.25431249999999994	0.27774999999999994	0.3013124999999999	0.32499999999999996	0.3488124999999999	0.3727499999999999	0.3968124999999999	0.42099999999999993	0.4453124999999999	0.46974999999999995	0.49431249999999993	0.519	0.5438124999999999	0.5687499999999999	0.5938125	0.619	0.6443124999999998	0.6697499999999998	0.6953124999999999	0.7209999999999999	0.7468124999999999	0.7727499999999998
0.5108125	0.5069374999999999	0.5029375	0.4988125	0.49456250000000007	0.49018749999999994	0.48568749999999994	0.48106250000000006	0.47631249999999997	0.47143750000000006	0.4664375	0.46131250000000007	0.4560624999999999	0.45068749999999996	0.44518750000000007	0.4395625000000001	0.43381250000000005	0.42793749999999997	0.4219375000000001	0.4158125	0.40956250000000005	0.40318750000000003	0.3966875	0.39006250000000003	0.38331249999999994
0.20143749999999996	0.22449999999999998	0.24768749999999998	0.27099999999999996	0.2944375	0.318	0.3416875	0.36549999999999994	0.38943749999999994	0.4135	0.43768749999999995	0.46199999999999997	0.4864375	0.511	0.5356875	0.5604999999999999	0.5854374999999999	0.6104999999999999	0.6356875000000001	0.6609999999999999	0.6864374999999999	0.712	0.7376874999999999	0.7635000000000001	0.7894374999999999
0.5289999999999999	0.5249375	0.5207499999999999	0.5164375	0.512	0.5074375	0.50275	0.4979375	0.493	0.4879375	0.48275	0.4774375	0.472	0.4664374999999999	0.46075000000000005	0.45493750000000005	0.44900000000000007	0.44293749999999993	0.43675	0.4304375	0.42400000000000004	0.41743749999999996	0.41075000000000006	0.40393749999999995	0.39699999999999996
0.21899999999999994	0.2420624999999999	0.26524999999999993	0.28856249999999994	0.31199999999999994	0.33556249999999993	0.35924999999999996	0.3830624999999999	0.4069999999999999	0.43106249999999996	0.45524999999999993	0.47956249999999995	0.504	0.5285624999999999	0.55325	0.5780624999999999	0.603	0.6280625	0.65325	0.6785624999999998	0.7039999999999998	0.7295624999999999	0.7552499999999999	0.7810625	0.8069999999999998
