0.0	0.0024375000000000004	0.004750000000000001	0.0069375	0.009	0.010937500000000001	0.012750000000000001	0.014437499999999999	0.016	0.0174375	0.018750000000000003	0.019937500000000004	0.021	0.021937500000000002	0.02275	0.0234375	0.024	0.0244375	0.02475	0.0249375	0.025	0.0249375	0.02475	0.024437500000000004	0.024000000000000004	0.023437500000000003	0.022750000000000003	0.021937500000000002	0.021000000000000008	0.019937500000000007	0.018749999999999996	0.017437499999999995	0.015999999999999993	0.0144375	0.01275	0.010937499999999998	0.008999999999999996	0.006937499999999994	0.004750000000000004	0.002437500000000002	0.0
0.0	0.0225625	0.045250000000000005	0.0680625	0.09100000000000001	0.1140625	0.13725	0.1605625	0.18400000000000002	0.2075625	0.23125	0.2550625	0.279	0.3030625	0.32725	0.3515625	0.37600000000000006	0.4005625	0.42525	0.4500625	0.475	0.5000625000000001	0.5252500000000001	0.5505625	0.576	0.6015625	0.62725	0.6530625000000001	0.6789999999999999	0.7050625	0.73125	0.7575625	0.784	0.8105625	0.8372499999999999	0.8640625000000001	0.891	0.9180625000000001	0.9452499999999999	0.9725625	1.0
0.0150625	0.017312499999999998	0.0194375	0.021437499999999998	0.023312500000000003	0.025062499999999998	0.0266875	0.028187499999999997	0.029562500000000002	0.0308125	0.0319375	0.0329375	0.0338125	0.0345625	0.035187500000000003	0.0356875	0.0360625	0.0363125	0.0364375	0.0364375	0.0363125	0.036062500000000004	0.0356875	0.035187500000000003	0.0345625	0.0338125	0.0329375	0.0319375	0.03081250000000001	0.02956250000000001	0.028187499999999994	0.026687499999999996	0.025062499999999995	0.023312500000000003	0.021437499999999998	0.0194375	0.017312499999999998	0.015062499999999996	0.012687500000000004	0.010187500000000006	0.0075625
-0.009562500000000002	0.013000000000000001	0.035687500000000004	0.058499999999999996	0.08143750000000001	0.1045	0.1276875	0.151	0.17443750000000002	0.198	0.2216875	0.24550000000000002	0.2694375	0.2935	0.3176875	0.34199999999999997	0.3664375	0.391	0.41568750000000004	0.4405	0.46543749999999995	0.49050000000000005	0.5156875000000001	0.5409999999999999	0.5664374999999999	0.592	0.6176875	0.6435000000000001	0.6694374999999999	0.6955	0.7216874999999999	0.748	0.7744375	0.8009999999999999	0.8276874999999999	0.8545	0.8814375	0.9085000000000001	0.9356874999999999	0.963	0.9904375
0.03025	0.0323125	0.03425	0.0360625	0.03775	0.0393125	0.04075	0.0420625	0.043250000000000004	0.044312500000000005	0.04525	0.046062500000000006	0.04675	0.04731250000000001	0.04775	0.04806250000000001	0.048249999999999994	0.0483125	0.04825	0.04806250000000001	0.04775000000000001	0.0473125	0.04675000000000001	0.046062500000000006	0.04525000000000001	0.044312500000000005	0.04325000000000001	0.0420625	0.04075000000000001	0.03931250000000001	0.037750000000000006	0.0360625	0.034249999999999996	0.03231250000000001	0.030250000000000003	0.028062500000000004	0.02575	0.023312499999999996	0.02075000000000001	0.018062500000000002	0.015250000000000007
-0.018250000000000002	0.004312499999999998	0.027000000000000003	0.04981249999999999	0.07275000000000001	0.0958125	0.119	0.14231249999999998	0.16575	0.1893125	0.213	0.2368125	0.26075	0.2848125	0.309	0.3333125	0.35775	0.3823125	0.40700000000000003	0.4318125	0.45675	0.48181250000000003	0.5070000000000001	0.5323125	0.55775	0.5833125	0.609	0.6348125	0.66075	0.6868124999999999	0.713	0.7393125	0.76575	0.7923125	0.819	0.8458125000000001	0.87275	0.8998125000000001	0.9269999999999999	0.9543125	0.98175
0.04556249999999999	0.047437499999999994	0.049187499999999995	0.0508125	0.0523125	0.0536875	0.05493749999999999	0.056062499999999994	0.057062499999999995	0.057937499999999996	0.05868749999999999	0.0593125	0.05981249999999999	0.0601875	0.0604375	0.0605625	0.06056249999999999	0.06043749999999999	0.0601875	0.0598125	0.0593125	0.05868749999999999	0.057937499999999996	0.057062499999999995	0.0560625	0.05493749999999999	0.0536875	0.05231249999999999	0.050812500000000003	0.0491875	0.047437499999999994	0.04556249999999999	0.04356249999999998	0.0414375	0.03918749999999999	0.0368125	0.03431249999999999	0.03168749999999999	0.028937500000000005	0.026062499999999995	0.0230625
-0.026062500000000002	-0.003500000000000002	0.019187500000000003	0.041999999999999996	0.06493750000000001	0.088	0.1111875	0.13449999999999998	0.1579375	0.1815	0.2051875	0.229	0.2529375	0.277	0.3011875	0.3255	0.3499375	0.3745	0.39918750000000003	0.424	0.4489375	0.47400000000000003	0.49918750000000006	0.5245	0.5499375	0.5755	0.6011875	0.627	0.6529375	0.6789999999999999	0.7051875	0.7315	0.7579375	0.7845	0.8111875	0.838	0.8649375	0.892	0.9191874999999999	0.9465	0.9739375
0.061	0.0626875	0.06425	0.0656875	0.067	0.0681875	0.06925	0.0701875	0.07100000000000001	0.0716875	0.07225000000000001	0.0726875	0.073	0.07318750000000002	0.07325	0.07318750000000002	0.073	0.07268750000000002	0.07225	0.0716875	0.07100000000000001	0.07018750000000001	0.06925000000000002	0.06818750000000001	0.06700000000000002	0.06568750000000001	0.06425000000000002	0.06268750000000001	0.061000000000000026	0.05918750000000001	0.05725	0.0551875	0.05300000000000001	0.05068750000000001	0.04825000000000001	0.045687500000000006	0.04300000000000002	0.0401875	0.03725000000000002	0.034187500000000016	0.031000000000000014
-0.033	-0.0104375	0.012250000000000002	0.03506249999999999	0.057999999999999996	0.08106249999999998	0.10425	0.12756249999999997	0.15100000000000002	0.17456249999999998	0.19825	0.2220625	0.246	0.2700625	0.29424999999999996	0.31856249999999997	0.343	0.36756249999999996	0.39225000000000004	0.41706249999999995	0.44199999999999995	0.4670625	0.4922500000000001	0.5175624999999999	0.5429999999999999	0.5685625	0.59425	0.6200625000000001	0.6459999999999999	0.6720625	0.6982499999999999	0.7245625	0.751	0.7775624999999999	0.8042499999999999	0.8310625	0.858	0.8850625000000001	0.9122499999999999	0.9395625	0.967
0.07656249999999999	0.07806249999999998	0.0794375	0.08068749999999998	0.0818125	0.08281249999999998	0.0836875	0.0844375	0.0850625	0.0855625	0.0859375	0.0861875	0.08631249999999999	0.0863125	0.0861875	0.0859375	0.08556249999999999	0.0850625	0.0844375	0.08368749999999998	0.0828125	0.08181250000000001	0.0806875	0.0794375	0.0780625	0.07656249999999999	0.0749375	0.07318749999999999	0.07131250000000001	0.0693125	0.06718749999999998	0.0649375	0.0625625	0.060062500000000005	0.057437499999999996	0.0546875	0.051812500000000004	0.048812499999999995	0.045687500000000006	0.04243750000000001	0.0390625
-0.0390625	-0.0165	0.006187500000000004	0.028999999999999995	0.051937500000000004	0.07499999999999998	0.0981875	0.12149999999999998	0.1449375	0.16849999999999998	0.1921875	0.216	0.2399375	0.264	0.2881875	0.3125	0.33693750000000006	0.3615	0.3861875	0.411	0.4359375	0.461	0.48618750000000005	0.5115	0.5369375	0.5625	0.5881875	0.614	0.6399374999999999	0.6659999999999999	0.6921875	0.7185	0.7449375	0.7715	0.7981874999999999	0.825	0.8519375	0.879	0.9061874999999999	0.9335	0.9609375
0.09225	0.09356249999999999	0.09475	0.0958125	0.09675	0.0975625	0.09825	0.0988125	0.09925	0.0995625	0.09974999999999999	0.0998125	0.09975	0.0995625	0.09925	0.0988125	0.09825	0.0975625	0.09674999999999999	0.09581250000000001	0.09475	0.09356249999999999	0.09225	0.0908125	0.08925	0.0875625	0.08575	0.0838125	0.08175	0.07956250000000001	0.07725	0.07481249999999998	0.07225	0.0695625	0.06675	0.0638125	0.060750000000000005	0.05756249999999999	0.05425000000000002	0.050812500000000003	0.047250000000000014
-0.044250000000000005	-0.021687500000000002	0.0010000000000000046	0.0238125	0.046750000000000014	0.0698125	0.093	0.1163125	0.13975000000000004	0.16331250000000003	0.18700000000000003	0.21081250000000004	0.23475000000000001	0.2588125	0.28300000000000003	0.30731250000000004	0.33175000000000004	0.35631250000000003	0.38100000000000006	0.4058125	0.4307500000000001	0.45581250000000006	0.48100000000000004	0.5063124999999999	0.53175	0.5573125000000001	0.5830000000000001	0.6088125000000001	0.6347499999999999	0.6608125	0.687	0.7133125000000001	0.7397500000000001	0.7663125000000001	0.793	0.8198125	0.8467500000000001	0.8738125000000001	0.901	0.9283125	0.9557500000000001
0.10806249999999998	0.10918749999999998	0.11018749999999998	0.11106249999999998	0.11181249999999998	0.11243749999999998	0.11293749999999998	0.11331249999999998	0.11356249999999998	0.11368749999999998	0.11368749999999998	0.11356249999999998	0.11331249999999998	0.11293749999999998	0.11243749999999998	0.11181250000000001	0.11106249999999997	0.11018749999999997	0.10918749999999999	0.10806249999999998	0.10681249999999998	0.10543749999999998	0.10393749999999999	0.1023125	0.10056249999999999	0.09868749999999998	0.0966875	0.0945625	0.09231249999999999	0.08993749999999999	0.0874375	0.08481249999999999	0.08206249999999998	0.0791875	0.07618749999999998	0.0730625	0.06981249999999999	0.06643749999999998	0.0629375	0.05931249999999998	0.0555625
-0.0485625	-0.026	-0.003312499999999992	0.019499999999999997	0.04243750000000001	0.0655	0.0886875	0.112	0.13543750000000004	0.15900000000000003	0.18268750000000003	0.20650000000000004	0.23043750000000002	0.2545	0.27868750000000003	0.30300000000000005	0.32743750000000005	0.35200000000000004	0.37668750000000006	0.4015	0.4264375000000001	0.45150000000000007	0.47668750000000004	0.502	0.5274375	0.553	0.5786875	0.6045	0.6304375	0.6565000000000001	0.6826875	0.7090000000000001	0.7354375000000001	0.762	0.7886875	0.8155000000000001	0.8424375000000001	0.8695000000000002	0.8966875	0.9239999999999999	0.9514375
0.124	0.1249375	0.12575	0.1264375	0.127	0.1274375	0.12775	0.1279375	0.128	0.1279375	0.12775	0.1274375	0.127	0.1264375	0.12575	0.12493750000000002	0.124	0.12293750000000002	0.12175000000000002	0.1204375	0.11900000000000002	0.11743750000000003	0.11575000000000003	0.11393750000000001	0.11200000000000004	0.10993750000000001	0.10775000000000004	0.1054375	0.10300000000000005	0.10043750000000003	0.09775	0.09493750000000001	0.09200000000000003	0.08893750000000003	0.08575000000000002	0.08243750000000002	0.07900000000000004	0.07543750000000002	0.07175000000000004	0.06793750000000003	0.06400000000000003
-0.052000000000000005	-0.029437500000000002	-0.006749999999999996	0.016062499999999993	0.03900000000000001	0.06206249999999999	0.08524999999999999	0.10856249999999999	0.13200000000000003	0.15556250000000002	0.17925000000000002	0.20306250000000003	0.227	0.2510625	0.27525	0.2995625	0.32400000000000007	0.3485625	0.3732500000000001	0.3980625	0.42300000000000004	0.44806250000000003	0.47325000000000006	0.49856249999999996	0.524	0.5495625000000001	0.57525	0.6010625	0.627	0.6530625	0.67925	0.7055625000000001	0.7320000000000001	0.7585625	0.78525	0.8120625000000001	0.8390000000000001	0.8660625000000002	0.89325	0.9205625	0.9480000000000001
0.14006249999999998	0.14081249999999998	0.1414375	0.14193749999999997	0.14231249999999998	0.14256249999999998	0.1426875	0.1426875	0.14256249999999998	0.1423125	0.1419375	0.1414375	0.1408125	0.1400625	0.1391875	0.1381875	0.1370625	0.1358125	0.1344375	0.1329375	0.1313125	0.1295625	0.12768749999999998	0.12568749999999998	0.12356250000000002	0.12131249999999999	0.1189375	0.11643749999999997	0.11381250000000002	0.11106250000000001	0.10818749999999996	0.10518749999999998	0.1020625	0.09881250000000001	0.09543749999999998	0.09193749999999999	0.08831250000000003	0.0845625	0.0806875	0.0766875	0.0725625
-0.05456250000000001	-0.032	-0.009312500000000005	0.01349999999999999	0.036437500000000005	0.0595	0.0826875	0.10599999999999998	0.1294375	0.153	0.1766875	0.2005	0.2244375	0.24850000000000003	0.2726875	0.297	0.32143750000000004	0.346	0.37068750000000006	0.3955	0.4204375	0.44550000000000006	0.47068750000000004	0.496	0.5214375	0.547	0.5726875	0.5985	0.6244375	0.6505	0.6766875	0.7030000000000001	0.7294375000000001	0.756	0.7826875	0.8095000000000001	0.8364375000000001	0.8635000000000002	0.8906875	0.9179999999999999	0.9454375
0.15625	0.1568125	0.15725	0.1575625	0.15775	0.1578125	0.15775	0.1575625	0.15725	0.1568125	0.15625	0.15556250000000002	0.15475	0.15381250000000002	0.15275	0.15156250000000002	0.15025	0.1488125	0.14725	0.1455625	0.14375000000000002	0.1418125	0.13975	0.1375625	0.13525	0.1328125	0.13025000000000003	0.1275625	0.12475000000000001	0.12181250000000002	0.11875000000000002	0.1155625	0.11224999999999999	0.10881250000000002	0.10525	0.1015625	0.09774999999999999	0.0938125	0.08975000000000002	0.0855625	0.08125000000000002
-0.05625000000000001	-0.0336875	-0.011	0.01181249999999999	0.03475	0.05781249999999999	0.08099999999999999	0.10431249999999999	0.12775000000000003	0.15131250000000002	0.17500000000000002	0.19881250000000003	0.22275	0.24681250000000002	0.271	0.2953125	0.31975000000000003	0.3443125	0.36900000000000005	0.3938125	0.41875000000000007	0.44381250000000005	0.46900000000000003	0.4943125	0.5197499999999999	0.5453125	0.571	0.5968125000000001	0.6227499999999999	0.6488125	0.675	0.7013125000000001	0.72775	0.7543125	0.781	0.8078125	0.83475	0.8618125000000001	0.889	0.9163125	0.94375
0.1725625	0.17293749999999997	0.1731875	0.17331249999999998	0.1733125	0.1731875	0.1729375	0.1725625	0.1720625	0.1714375	0.1706875	0.1698125	0.1688125	0.1676875	0.1664375	0.1650625	0.1635625	0.16193749999999998	0.16018749999999998	0.15831250000000002	0.15631250000000002	0.15418749999999998	0.1519375	0.14956250000000001	0.14706250000000004	0.1444375	0.1416875	0.1388125	0.1358125	0.13268749999999999	0.1294375	0.1260625	0.12256249999999999	0.11893750000000003	0.11518749999999998	0.11131250000000001	0.10731249999999999	0.1031875	0.09893750000000004	0.09456250000000001	0.09006250000000002
-0.05706250000000001	-0.0345	-0.0118125	0.010999999999999989	0.0339375	0.05699999999999999	0.0801875	0.10349999999999998	0.1269375	0.1505	0.1741875	0.198	0.2219375	0.246	0.27018749999999997	0.2945	0.31893750000000004	0.34349999999999997	0.36818750000000006	0.39299999999999996	0.4179375	0.44300000000000006	0.46818750000000003	0.4935	0.5189374999999999	0.5445	0.5701875	0.5960000000000001	0.6219374999999999	0.648	0.6741875	0.7005000000000001	0.7269375	0.7535000000000001	0.7801875	0.807	0.8339375	0.8610000000000001	0.8881875	0.9155	0.9429375
0.189	0.18918749999999998	0.18925	0.18918749999999998	0.189	0.18868749999999998	0.18825000000000003	0.18768749999999998	0.18700000000000003	0.1861875	0.18525000000000003	0.1841875	0.183	0.1816875	0.18025	0.1786875	0.177	0.1751875	0.17325	0.1711875	0.16899999999999998	0.16668750000000002	0.16424999999999998	0.1616875	0.159	0.1561875	0.15325	0.1501875	0.14700000000000002	0.1436875	0.14025	0.13668749999999996	0.133	0.1291875	0.12525000000000003	0.1211875	0.11700000000000003	0.1126875	0.10825000000000004	0.1036875	0.09900000000000003
-0.05700000000000001	-0.0344375	-0.011750000000000007	0.011062499999999989	0.034	0.057062499999999995	0.08024999999999999	0.10356249999999997	0.12700000000000003	0.1505625	0.17425000000000002	0.1980625	0.222	0.24606250000000002	0.27025	0.2945625	0.31900000000000006	0.3435625	0.36825	0.3930625	0.41800000000000004	0.4430625	0.46825	0.49356249999999996	0.5189999999999999	0.5445625000000001	0.57025	0.5960625	0.6219999999999999	0.6480625	0.67425	0.7005625000000001	0.727	0.7535625	0.78025	0.8070625	0.834	0.8610625000000001	0.88825	0.9155625	0.9430000000000001
0.20556249999999998	0.20556249999999995	0.2054375	0.20518749999999997	0.20481249999999998	0.20431249999999998	0.20368750000000002	0.2029375	0.2020625	0.20106249999999998	0.19993750000000002	0.1986875	0.19731249999999997	0.19581249999999997	0.1941875	0.1924375	0.19056249999999997	0.18856250000000002	0.1864375	0.18418749999999995	0.1818125	0.1793125	0.1766875	0.1739375	0.17106250000000003	0.1680625	0.1649375	0.16168749999999996	0.15831250000000002	0.15481250000000002	0.15118749999999997	0.1474375	0.14356250000000004	0.13956250000000003	0.13543750000000002	0.1311875	0.12681250000000002	0.1223125	0.1176875	0.11293750000000004	0.1080625
-0.056062500000000015	-0.03350000000000001	-0.010812500000000006	0.011999999999999983	0.034937499999999996	0.05799999999999998	0.08118749999999998	0.10449999999999997	0.1279375	0.1515	0.1751875	0.199	0.22293749999999998	0.247	0.27118749999999997	0.2955	0.31993750000000004	0.3445	0.3691875	0.39399999999999996	0.4189375	0.444	0.46918750000000004	0.49449999999999994	0.5199374999999999	0.5455	0.5711875	0.5970000000000001	0.6229374999999999	0.649	0.6751874999999999	0.7015	0.7279375	0.7545	0.7811874999999999	0.808	0.8349375	0.8620000000000001	0.8891874999999999	0.9164999999999999	0.9439375
0.22224999999999998	0.22206249999999997	0.22174999999999997	0.22131249999999997	0.22074999999999997	0.22006249999999997	0.21925	0.2183125	0.21725	0.2160625	0.21474999999999997	0.2133125	0.21175	0.2100625	0.20825000000000002	0.2063125	0.20425	0.20206249999999998	0.19974999999999996	0.19731250000000003	0.19475	0.1920625	0.18924999999999997	0.18631249999999996	0.18325000000000002	0.18006250000000001	0.17675	0.17331249999999998	0.16974999999999996	0.1660625	0.16225	0.15831249999999997	0.15424999999999994	0.15006250000000002	0.14575	0.14131249999999998	0.13674999999999995	0.1320625	0.12725000000000003	0.1223125	0.11725
-0.054250000000000013	-0.03168750000000001	-0.009000000000000018	0.013812499999999978	0.03674999999999999	0.05981249999999998	0.08299999999999998	0.10631249999999996	0.12975	0.1533125	0.177	0.2008125	0.22474999999999998	0.2488125	0.27299999999999996	0.2973125	0.32175000000000004	0.34631249999999997	0.371	0.39581249999999996	0.42075	0.4458125	0.471	0.49631249999999993	0.5217499999999999	0.5473125	0.573	0.5988125000000001	0.6247499999999999	0.6508125	0.6769999999999999	0.7033125	0.72975	0.7563124999999999	0.7829999999999999	0.8098125	0.83675	0.8638125000000001	0.8909999999999999	0.9183124999999999	0.94575
0.23906249999999998	0.23868749999999994	0.2381875	0.23756249999999998	0.23681249999999998	0.2359375	0.2349375	0.23381249999999998	0.23256250000000003	0.2311875	0.2296875	0.22806250000000003	0.22631249999999997	0.2244375	0.2224375	0.22031250000000002	0.2180625	0.2156875	0.2131875	0.21056249999999999	0.20781249999999998	0.20493749999999997	0.20193749999999996	0.1988125	0.19556250000000003	0.19218749999999998	0.1886875	0.18506250000000002	0.1813125	0.17743750000000003	0.17343750000000005	0.1693125	0.16506249999999997	0.16068750000000007	0.1561875	0.15156250000000004	0.14681250000000004	0.14193750000000002	0.13693750000000005	0.13181250000000003	0.12656250000000002
-0.051562500000000025	-0.029000000000000022	-0.006312500000000023	0.016499999999999966	0.03943749999999998	0.06249999999999997	0.08568749999999997	0.10899999999999996	0.13243749999999999	0.15599999999999997	0.17968749999999997	0.2035	0.22743749999999996	0.2515	0.2756875	0.3	0.32443750000000005	0.349	0.3736875	0.39849999999999997	0.4234375	0.4485	0.4736875	0.49899999999999994	0.5244374999999999	0.5499999999999999	0.5756874999999999	0.6015	0.6274374999999999	0.6535	0.6796875	0.7060000000000001	0.7324375	0.759	0.7856875	0.8125	0.8394375	0.8665	0.8936875	0.9209999999999999	0.9484374999999999
0.256	0.2554375	0.25475000000000003	0.25393750000000004	0.253	0.25193750000000004	0.25075000000000003	0.24943750000000003	0.24800000000000003	0.24643750000000003	0.24475000000000002	0.24293750000000003	0.241	0.23893750000000005	0.23675	0.23443750000000005	0.23200000000000004	0.22943750000000004	0.22675000000000006	0.2239375	0.22100000000000006	0.21793750000000006	0.21475000000000005	0.21143750000000003	0.20800000000000007	0.20443750000000002	0.20075000000000007	0.19693750000000002	0.19300000000000012	0.18893750000000006	0.18475000000000003	0.18043750000000003	0.17600000000000007	0.17143750000000008	0.16675000000000006	0.16193750000000007	0.1570000000000001	0.15193750000000006	0.14675000000000007	0.14143750000000008	0.13600000000000007
-0.04800000000000002	-0.02543750000000002	-0.00275000000000002	0.02006249999999997	0.04299999999999998	0.06606249999999997	0.08924999999999997	0.11256249999999995	0.136	0.15956249999999997	0.18325	0.20706249999999998	0.23099999999999998	0.25506249999999997	0.27924999999999994	0.30356249999999996	0.328	0.35256249999999995	0.37725000000000003	0.40206249999999993	0.427	0.4520625	0.47725	0.5025624999999999	0.5279999999999999	0.5535625	0.5792499999999999	0.6050625000000001	0.6309999999999999	0.6570625	0.6832499999999999	0.7095625	0.736	0.7625624999999999	0.7892499999999999	0.8160625	0.843	0.8700625000000001	0.8972499999999999	0.9245624999999998	0.952
0.2730625	0.27231249999999996	0.2714375	0.27043749999999994	0.26931249999999995	0.2680625	0.26668749999999997	0.2651875	0.26356250000000003	0.26181249999999995	0.25993750000000004	0.2579375	0.25581249999999994	0.2535625	0.25118749999999995	0.24868749999999995	0.24606249999999996	0.2433125	0.2404375	0.23743749999999994	0.23431249999999995	0.2310625	0.22768749999999996	0.2241875	0.2205625	0.21681249999999996	0.2129375	0.20893749999999997	0.2048125	0.2005625	0.19618749999999993	0.19168749999999998	0.1870625	0.1823125	0.1774375	0.1724375	0.1673125	0.1620625	0.15668749999999998	0.15118750000000003	0.14556249999999998
-0.04356250000000001	-0.021000000000000008	0.001687499999999991	0.02449999999999998	0.047437499999999994	0.07049999999999998	0.09368749999999998	0.11699999999999997	0.1404375	0.16399999999999998	0.18768749999999998	0.2115	0.23543749999999997	0.25949999999999995	0.2836875	0.308	0.3324375	0.357	0.3816875	0.4065	0.43143750000000003	0.4565	0.4816875	0.5069999999999999	0.5324374999999999	0.5579999999999999	0.5836874999999999	0.6095	0.6354374999999999	0.6615	0.6876875	0.714	0.7404375	0.7669999999999999	0.7936875	0.8205	0.8474375	0.8745	0.9016874999999999	0.9289999999999998	0.9564374999999999
0.29025	0.2893125	0.28825000000000006	0.2870625	0.28575	0.28431249999999997	0.28275000000000006	0.2810625	0.27925000000000005	0.2773125	0.27525	0.27306250000000004	0.27075	0.2683125	0.26575000000000004	0.26306250000000003	0.26025	0.2573125	0.25425000000000003	0.2510625	0.24775	0.24431250000000002	0.24075000000000002	0.2370625	0.23325	0.22931250000000003	0.22525000000000003	0.2210625	0.21675	0.21231250000000007	0.20775000000000005	0.2030625	0.19824999999999998	0.19331250000000008	0.18825000000000003	0.18306250000000004	0.17775	0.17231250000000006	0.16675000000000004	0.1610625	0.15525
-0.03825000000000001	-0.01568750000000001	0.006999999999999992	0.02981249999999998	0.05274999999999999	0.07581249999999998	0.09899999999999999	0.12231249999999996	0.14575	0.16931249999999998	0.193	0.2168125	0.24075	0.2648125	0.289	0.3133125	0.33775000000000005	0.3623125	0.387	0.41181249999999997	0.43675	0.4618125	0.487	0.5123125	0.53775	0.5633125	0.589	0.6148125	0.6407499999999999	0.6668124999999999	0.693	0.7193125	0.74575	0.7723125	0.7989999999999999	0.8258125000000001	0.85275	0.8798125000000001	0.9069999999999999	0.9343124999999999	0.96175
0.30756249999999996	0.3064374999999999	0.30518749999999994	0.3038125	0.3023125	0.3006875	0.2989375	0.29706249999999995	0.2950625	0.29293749999999996	0.29068749999999993	0.2883125	0.28581249999999997	0.2831875	0.28043749999999995	0.2775625	0.2745625	0.27143749999999994	0.26818749999999997	0.2648125	0.2613125	0.25768749999999996	0.2539375	0.25006249999999997	0.24606250000000002	0.24193749999999997	0.2376875	0.23331250000000003	0.2288125	0.22418750000000004	0.2194375	0.21456250000000002	0.20956249999999993	0.20443750000000002	0.1991875	0.1938125	0.18831250000000002	0.18268750000000003	0.17693750000000003	0.17106249999999998	0.1650625
-0.03206250000000003	-0.00950000000000003	0.013187499999999974	0.03599999999999996	0.058937499999999976	0.08199999999999996	0.10518749999999996	0.12849999999999995	0.15193749999999998	0.17549999999999996	0.19918749999999996	0.22299999999999998	0.24693749999999995	0.27099999999999996	0.29518749999999994	0.31949999999999995	0.3439375	0.36849999999999994	0.39318749999999997	0.4179999999999999	0.4429375	0.46799999999999997	0.49318749999999995	0.5185	0.5439374999999999	0.5694999999999999	0.5951875	0.621	0.6469374999999998	0.6729999999999999	0.6991875	0.7255	0.7519374999999999	0.7785	0.8051875	0.832	0.8589374999999999	0.886	0.9131874999999999	0.9404999999999999	0.9679374999999999
0.32499999999999996	0.3236874999999999	0.32225	0.32068749999999996	0.31899999999999995	0.31718749999999996	0.31525	0.31318749999999995	0.311	0.30868749999999995	0.3062499999999999	0.30368749999999994	0.30099999999999993	0.2981875	0.29524999999999996	0.2921875	0.289	0.2856874999999999	0.28224999999999995	0.2786875	0.27499999999999997	0.2711874999999999	0.26724999999999993	0.26318749999999996	0.259	0.25468749999999996	0.25025	0.24568749999999998	0.24099999999999996	0.2361875	0.23124999999999998	0.22618749999999999	0.22099999999999992	0.2156875	0.21025	0.20468750000000002	0.19899999999999998	0.1931875	0.18725	0.18118749999999997	0.175
-0.025000000000000022	-0.0024375000000000225	0.02024999999999998	0.04306249999999997	0.06599999999999998	0.08906249999999996	0.11224999999999997	0.13556249999999995	0.15899999999999997	0.18256249999999996	0.20625	0.23006249999999998	0.25399999999999995	0.2780625	0.30224999999999996	0.3265625	0.351	0.37556249999999997	0.40025	0.42506249999999995	0.44999999999999996	0.4750625	0.50025	0.5255624999999999	0.5509999999999999	0.5765625	0.60225	0.6280625	0.6539999999999999	0.6800624999999999	0.7062499999999999	0.7325625	0.759	0.7855624999999999	0.8122499999999999	0.8390624999999999	0.866	0.8930625	0.9202499999999999	0.9475624999999999	0.9749999999999999
0.3425625	0.3410625	0.3394375	0.3376875	0.3358125	0.33381249999999996	0.3316875	0.3294375	0.32706250000000003	0.32456250000000003	0.32193750000000004	0.3191875	0.3163125	0.31331250000000005	0.31018749999999995	0.30693750000000003	0.30356249999999996	0.3000625	0.2964375	0.2926875	0.2888125	0.2848125000000001	0.2806875	0.2764375	0.27206250000000004	0.26756250000000004	0.2629375	0.2581875	0.2533125000000001	0.24831250000000002	0.24318749999999995	0.23793750000000002	0.2325625	0.22706250000000006	0.22143750000000004	0.21568750000000006	0.2098125000000001	0.20381250000000006	0.19768750000000002	0.19143750000000004	0.18506250000000007
-0.017062500000000015	0.005499999999999984	0.028187499999999987	0.050999999999999976	0.07393749999999999	0.09699999999999998	0.12018749999999997	0.14349999999999996	0.1669375	0.19049999999999997	0.21418749999999998	0.238	0.2619375	0.286	0.31018749999999995	0.33449999999999996	0.3589375	0.38349999999999995	0.4081875	0.43299999999999994	0.4579375	0.483	0.5081875	0.5334999999999999	0.5589374999999999	0.5844999999999999	0.6101874999999999	0.636	0.6619374999999998	0.688	0.7141875	0.7405	0.7669374999999999	0.7935	0.8201875	0.847	0.8739374999999999	0.901	0.9281874999999999	0.9554999999999999	0.9829374999999999
0.36025000000000007	0.3585625	0.35675000000000007	0.35481250000000003	0.35275000000000006	0.3505625	0.34825000000000006	0.3458125000000001	0.3432500000000001	0.34056250000000005	0.33775	0.33481250000000007	0.33175	0.32856250000000004	0.32525000000000004	0.32181250000000006	0.31825000000000003	0.3145625	0.31075	0.3068125000000001	0.3027500000000001	0.2985625	0.29425	0.2898125000000001	0.2852500000000001	0.28056250000000005	0.27575000000000005	0.27081250000000007	0.26575000000000004	0.2605625000000001	0.2552500000000001	0.24981250000000008	0.24425000000000002	0.23856250000000007	0.23275000000000007	0.22681250000000008	0.22075000000000003	0.21456250000000004	0.20825000000000013	0.20181250000000006	0.1952500000000001
-0.008250000000000007	0.014312499999999992	0.03699999999999999	0.059812499999999984	0.08274999999999999	0.10581249999999998	0.12899999999999998	0.15231249999999996	0.17575	0.19931249999999998	0.22299999999999998	0.2468125	0.27075	0.2948125	0.31899999999999995	0.34331249999999996	0.36775	0.39231249999999995	0.417	0.44181249999999994	0.46675	0.4918125	0.517	0.5423125	0.5677499999999999	0.5933124999999999	0.619	0.6448125	0.6707499999999998	0.6968125	0.723	0.7493125	0.7757499999999999	0.8023125	0.829	0.8558125	0.8827499999999999	0.9098125	0.9369999999999999	0.9643124999999999	0.9917499999999999
0.37806249999999997	0.3761874999999999	0.37418749999999995	0.37206249999999996	0.36981249999999993	0.3674375	0.36493749999999997	0.3623125	0.3595625	0.35668749999999994	0.35368749999999993	0.3505625	0.34731249999999997	0.3439375	0.34043749999999995	0.33681249999999996	0.3330625	0.3291874999999999	0.32518749999999996	0.3210625	0.31681249999999994	0.3124375	0.3079375	0.3033125	0.2985625	0.29368749999999993	0.28868750000000004	0.28356249999999994	0.27831249999999996	0.2729375	0.2674375	0.2618124999999999	0.2560625	0.25018749999999995	0.2441875	0.23806250000000007	0.2318125	0.22543750000000004	0.2189375	0.21231249999999993	0.20556249999999998
0.0014374999999999692	0.02399999999999997	0.04668749999999997	0.06949999999999996	0.09243749999999998	0.11549999999999996	0.13868749999999996	0.16199999999999995	0.1854375	0.20899999999999996	0.2326875	0.2565	0.28043749999999995	0.3045	0.32868749999999997	0.353	0.37743750000000004	0.40199999999999997	0.4266875	0.45149999999999996	0.47643749999999996	0.5015000000000001	0.5266875000000001	0.5519999999999999	0.5774374999999999	0.603	0.6286875	0.6545000000000001	0.6804374999999999	0.7064999999999999	0.7326874999999999	0.759	0.7854375	0.8119999999999999	0.8386874999999999	0.8655	0.8924375	0.9195000000000001	0.9466874999999999	0.974	1.0014375
0.39599999999999996	0.3939374999999999	0.39175	0.38943749999999994	0.38699999999999996	0.38443749999999993	0.38175	0.3789374999999999	0.376	0.3729374999999999	0.3697499999999999	0.3664374999999999	0.3629999999999999	0.35943749999999997	0.3557499999999999	0.35193749999999996	0.34799999999999986	0.34393749999999995	0.33974999999999994	0.3354375	0.33099999999999996	0.32643749999999994	0.3217499999999999	0.3169375	0.312	0.3069375	0.30175	0.2964374999999999	0.2909999999999999	0.28543749999999996	0.27975	0.27393749999999994	0.2679999999999999	0.2619375	0.2557499999999999	0.24943749999999998	0.2429999999999999	0.23643749999999994	0.22974999999999998	0.22293749999999987	0.21599999999999997
0.011999999999999978	0.034562499999999975	0.05724999999999998	0.08006249999999997	0.103	0.12606249999999997	0.14924999999999997	0.17256249999999995	0.196	0.21956249999999997	0.24325	0.2670625	0.291	0.31506249999999997	0.33924999999999994	0.3635625	0.38800000000000007	0.4125625	0.43725	0.4620625	0.487	0.5120625	0.5372500000000001	0.5625625	0.588	0.6135625	0.63925	0.6650625	0.691	0.7170624999999999	0.74325	0.7695625	0.796	0.8225625	0.84925	0.8760625000000001	0.903	0.9300625000000001	0.9572499999999999	0.9845625	1.012
0.4140625	0.41181249999999997	0.4094375	0.40693749999999995	0.40431249999999996	0.4015625	0.39868750000000003	0.39568749999999997	0.39256250000000004	0.38931249999999995	0.3859375	0.3824375	0.37881249999999994	0.37506249999999997	0.3711875	0.3671875	0.3630624999999999	0.35881250000000003	0.35443749999999996	0.34993749999999996	0.3453125	0.34056250000000005	0.33568749999999997	0.33068749999999997	0.32556250000000003	0.3203125	0.31493750000000004	0.3094375	0.3038125000000001	0.2980625	0.2921875	0.28618749999999993	0.2800625	0.27381249999999996	0.2674375	0.26093749999999993	0.2543125	0.24756249999999996	0.2406875	0.2336875	0.2265625
0.023437499999999986	0.045999999999999985	0.0686875	0.09149999999999998	0.1144375	0.13749999999999998	0.16068749999999998	0.18399999999999997	0.2074375	0.23099999999999998	0.2546875	0.2785	0.30243749999999997	0.3265	0.3506875	0.375	0.39943750000000006	0.424	0.4486875	0.4735	0.4984375	0.5235000000000001	0.5486875000000001	0.574	0.5994375	0.625	0.6506875	0.6765000000000001	0.7024374999999999	0.7284999999999999	0.7546875	0.781	0.8074375	0.834	0.8606874999999999	0.8875000000000001	0.9144375	0.9415000000000001	0.9686874999999999	0.9960000000000001	1.0234375
0.43224999999999997	0.42981249999999993	0.42724999999999996	0.42456249999999995	0.42174999999999996	0.4188124999999999	0.41574999999999995	0.4125625	0.40925	0.40581249999999996	0.40225	0.3985625	0.39474999999999993	0.39081249999999995	0.3867499999999999	0.3825625	0.3782499999999999	0.37381250000000005	0.36925	0.36456249999999996	0.3597499999999999	0.3548125	0.34974999999999995	0.34456249999999994	0.33925	0.33381249999999996	0.32825000000000004	0.3225625	0.31675	0.31081249999999994	0.30474999999999985	0.29856249999999995	0.29225	0.28581249999999997	0.27924999999999994	0.2725625	0.26574999999999993	0.2588124999999999	0.25175	0.24456249999999996	0.23724999999999996
0.03574999999999996	0.05831249999999997	0.08099999999999997	0.10381249999999996	0.12674999999999997	0.14981249999999996	0.17299999999999996	0.19631249999999995	0.21974999999999997	0.24331249999999996	0.26699999999999996	0.2908125	0.31475	0.33881249999999996	0.36299999999999993	0.38731249999999995	0.41175	0.43631249999999994	0.461	0.4858125	0.5107499999999999	0.5358125	0.561	0.5863124999999999	0.6117499999999999	0.6373125	0.6629999999999999	0.6888125	0.7147499999999999	0.7408125	0.7669999999999999	0.7933125	0.81975	0.8463124999999999	0.873	0.8998125	0.92675	0.9538125000000001	0.9809999999999999	1.0083125	1.03575
0.45056250000000003	0.4479375	0.4451875	0.4423125	0.4393125	0.4361875	0.4329375000000001	0.42956249999999996	0.42606250000000007	0.4224375	0.4186875	0.4148125000000001	0.4108124999999999	0.40668750000000004	0.4024375	0.3980625000000001	0.3935625	0.3889375	0.38418749999999996	0.37931250000000005	0.37431250000000005	0.3691875	0.3639375	0.35856250000000006	0.3530625	0.34743749999999995	0.34168750000000003	0.3358125	0.3298125	0.3236875000000001	0.31743750000000004	0.31106249999999996	0.30456249999999996	0.2979375000000001	0.2911875	0.28431249999999997	0.2773124999999999	0.27018749999999997	0.26293750000000005	0.25556249999999997	0.24806250000000007
0.048937499999999974	0.07149999999999998	0.09418749999999998	0.11699999999999997	0.1399375	0.16299999999999998	0.18618749999999998	0.20949999999999996	0.2329375	0.2565	0.2801875	0.304	0.3279375	0.352	0.37618749999999995	0.40049999999999997	0.4249375	0.44949999999999996	0.4741875	0.49899999999999994	0.5239375	0.549	0.5741875000000001	0.5994999999999999	0.6249374999999999	0.6505	0.6761874999999999	0.7020000000000001	0.7279374999999999	0.754	0.7801875	0.8065	0.8329375	0.8594999999999999	0.8861875	0.913	0.9399375	0.9670000000000001	0.9941874999999999	1.0215	1.0489375
0.4689999999999999	0.4661874999999999	0.46324999999999994	0.4601874999999999	0.45699999999999996	0.4536874999999999	0.45024999999999993	0.4466874999999999	0.443	0.4391874999999999	0.43524999999999986	0.43118749999999995	0.42699999999999994	0.42268749999999994	0.4182499999999999	0.4136875	0.4089999999999999	0.4041874999999999	0.39924999999999994	0.3941875	0.389	0.38368749999999996	0.3782499999999999	0.37268749999999995	0.367	0.3611875	0.35524999999999995	0.34918749999999993	0.3429999999999999	0.33668750000000003	0.33025	0.32368749999999996	0.3169999999999999	0.3101875	0.30325	0.29618749999999994	0.2889999999999999	0.28168750000000004	0.27425000000000005	0.26668749999999986	0.259
0.06299999999999993	0.08556249999999994	0.10824999999999996	0.13106249999999994	0.15399999999999997	0.17706249999999993	0.20024999999999993	0.22356249999999994	0.24699999999999997	0.2705625	0.29424999999999996	0.31806249999999997	0.34199999999999997	0.36606249999999996	0.39024999999999993	0.4145625	0.43900000000000006	0.46356249999999993	0.48825	0.5130625	0.538	0.5630625	0.58825	0.6135624999999999	0.6389999999999999	0.6645625	0.69025	0.7160625	0.7419999999999999	0.7680625	0.79425	0.8205625000000001	0.8470000000000001	0.8735625	0.90025	0.9270625	0.9540000000000001	0.9810625000000001	1.0082499999999999	1.0355625	1.063
0.48756249999999995	0.48456249999999995	0.48143749999999996	0.4781875	0.47481249999999997	0.4713124999999999	0.46768750000000003	0.4639375	0.4600625	0.4560625	0.4519375000000001	0.44768749999999996	0.44331249999999994	0.43881250000000005	0.43418750000000006	0.4294375	0.42456249999999995	0.4195625	0.41443749999999996	0.4091875	0.4038125	0.3983125	0.3926875	0.3869375	0.38106249999999997	0.37506249999999997	0.36893750000000003	0.36268750000000005	0.35631250000000003	0.3498125	0.3431875	0.33643749999999994	0.32956250000000004	0.3225625000000001	0.31543750000000004	0.3081875	0.3008125000000001	0.2933125	0.28568750000000004	0.27793750000000006	0.2700625000000001
0.07793749999999995	0.10049999999999996	0.12318749999999998	0.14599999999999994	0.16893749999999996	0.19199999999999995	0.21518749999999995	0.23849999999999996	0.2619375	0.2855	0.30918749999999995	0.33299999999999996	0.35693749999999996	0.38099999999999995	0.4051875	0.4295	0.45393750000000005	0.4785	0.5031875	0.528	0.5529375000000001	0.5780000000000001	0.6031875	0.6285	0.6539375	0.6795	0.7051875	0.7310000000000001	0.7569374999999999	0.783	0.8091875	0.8355000000000001	0.8619375	0.8885000000000001	0.9151874999999999	0.9420000000000001	0.9689375	0.9960000000000001	1.0231875	1.0505	1.0779375
0.50625	0.5030624999999999	0.49974999999999997	0.49631249999999993	0.49274999999999997	0.48906249999999996	0.48525	0.4813124999999999	0.47725	0.4730625	0.46875	0.46431249999999996	0.45975	0.4550625	0.45025	0.4453125	0.4402499999999999	0.43506249999999996	0.42974999999999997	0.4243124999999999	0.41874999999999996	0.4130625	0.40725	0.4013124999999999	0.39525	0.3890625	0.38275	0.37631249999999994	0.3697500000000001	0.36306249999999995	0.35624999999999996	0.3493125	0.34225	0.33506250000000004	0.32775000000000004	0.3203125	0.31275	0.30506249999999996	0.29725	0.2893125	0.28125
0.09374999999999992	0.11631249999999992	0.13899999999999993	0.16181249999999991	0.18474999999999991	0.2078124999999999	0.23099999999999993	0.25431249999999994	0.27774999999999994	0.3013124999999999	0.32499999999999996	0.3488124999999999	0.3727499999999999	0.3968124999999999	0.42099999999999993	0.4453124999999999	0.46974999999999995	0.49431249999999993	0.519	0.5438124999999999	0.5687499999999999	0.5938125	0.619	0.6443124999999998	0.6697499999999998	0.6953124999999999	0.7209999999999999	0.7468124999999999	0.7727499999999998	0.7988124999999999	0.825	0.8513124999999999	0.8777499999999999	0.9043125	0.9309999999999999	0.9578125	0.9847499999999999	1.0118125	1.039	1.0663125	1.09375
0.5250625	0.5216875	0.5181875	0.5145625	0.5108125	0.5069374999999999	0.5029375	0.4988125	0.49456250000000007	0.49018749999999994	0.48568749999999994	0.48106250000000006	0.47631249999999997	0.47143750000000006	0.4664375	0.46131250000000007	0.4560624999999999	0.45068749999999996	0.44518750000000007	0.4395625000000001	0.43381250000000005	0.42793749999999997	0.4219375000000001	0.4158125	0.40956250000000005	0.40318750000000003	0.3966875	0.39006250000000003	0.38331249999999994	0.37643750000000004	0.36943750000000003	0.36231250000000004	0.3550625	0.34768750000000004	0.34018750000000003	0.33256250000000004	0.3248125	0.3169375	0.3089375000000001	0.30081250000000004	0.29256250000000006
0.11043749999999997	0.13299999999999998	0.15568749999999998	0.17849999999999996	0.20143749999999996	0.22449999999999998	0.24768749999999998	0.27099999999999996	0.2944375	0.318	0.3416875	0.36549999999999994	0.38943749999999994	0.4135	0.43768749999999995	0.46199999999999997	0.4864375	0.511	0.5356875	0.5604999999999999	0.5854374999999999	0.6104999999999999	0.6356875000000001	0.6609999999999999	0.6864374999999999	0.712	0.7376874999999999	0.7635000000000001	0.7894374999999999	0.8154999999999999	0.8416874999999999	0.868	0.8944375	0.9209999999999999	0.9476874999999999	0.9745	1.0014375	1.0285	1.0556875	1.083	1.1104375
0.5439999999999999	0.5404374999999999	0.53675	0.5329375	0.5289999999999999	0.5249375	0.5207499999999999	0.5164375	0.512	0.5074375	0.50275	0.4979375	0.493	0.4879375	0.48275	0.4774375	0.472	0.4664374999999999	0.46075000000000005	0.45493750000000005	0.44900000000000007	0.44293749999999993	0.43675	0.4304375	0.42400000000000004	0.41743749999999996	0.41075000000000006	0.40393749999999995	0.39699999999999996	0.3899375	0.3827500000000001	0.3754375	0.36799999999999994	0.3604375	0.35275	0.3449375	0.33699999999999997	0.32893749999999994	0.32075000000000004	0.3124375	0.30400000000000005
0.12799999999999995	0.15056249999999996	0.17324999999999996	0.19606249999999995	0.21899999999999994	0.2420624999999999	0.26524999999999993	0.28856249999999994	0.31199999999999994	0.33556249999999993	0.35924999999999996	0.3830624999999999	0.4069999999999999	0.43106249999999996	0.45524999999999993	0.47956249999999995	0.504	0.5285624999999999	0.55325	0.5780624999999999	0.603	0.6280625	0.65325	0.6785624999999998	0.7039999999999998	0.7295624999999999	0.7552499999999999	0.7810625	0.8069999999999998	0.8330624999999999	0.85925	0.8855625	0.9119999999999999	0.9385625	0.9652499999999999	0.9920625000000001	1.019	1.0460625000000001	1.0732499999999998	1.1005624999999999	1.128
0.5630625	0.5593124999999999	0.5554374999999999	0.5514374999999999	0.5473125	0.5430625	0.5386875	0.5341875	0.5295625	0.5248124999999999	0.5199375	0.5149374999999999	0.5098125	0.5045625	0.4991875	0.49368750000000006	0.4880625	0.4823125000000001	0.47643749999999996	0.4704375	0.4643125	0.4580625000000001	0.4516875	0.44518750000000007	0.4385625000000001	0.43181250000000004	0.4249375000000001	0.41793749999999996	0.41081250000000014	0.4035625	0.3961875	0.3886875	0.38106250000000014	0.37331250000000005	0.3654375000000001	0.3574375000000001	0.3493125000000001	0.3410625000000001	0.3326875000000001	0.32418750000000013	0.3155625000000001
0.1464374999999999	0.1689999999999999	0.1916874999999999	0.21449999999999989	0.2374374999999999	0.26049999999999984	0.28368749999999987	0.3069999999999999	0.33043749999999994	0.3539999999999999	0.3776874999999999	0.4014999999999999	0.4254374999999999	0.4494999999999999	0.4736874999999999	0.49799999999999994	0.5224375	0.5469999999999999	0.5716875	0.5964999999999999	0.6214374999999999	0.6465	0.6716874999999999	0.6969999999999998	0.7224374999999998	0.7479999999999999	0.7736875	0.7995	0.8254374999999998	0.8514999999999999	0.8776875	0.904	0.9304375	0.9569999999999999	0.9836874999999998	1.0105	1.0374375	1.0645	1.0916875	1.1189999999999998	1.1464375
0.5822499999999999	0.5783124999999999	0.5742499999999999	0.5700624999999999	0.56575	0.5613124999999999	0.55675	0.5520625	0.54725	0.5423124999999999	0.53725	0.5320624999999999	0.5267499999999999	0.5213125	0.5157499999999999	0.5100625	0.5042499999999999	0.49831249999999994	0.49224999999999997	0.48606249999999984	0.47975	0.47331249999999997	0.4667499999999999	0.46006249999999993	0.45324999999999993	0.44631249999999995	0.43925	0.43206249999999985	0.42475	0.4173124999999999	0.40974999999999995	0.40206249999999993	0.39424999999999993	0.3863125	0.3782499999999999	0.3700624999999999	0.36175000000000007	0.3533124999999999	0.34475000000000006	0.3360625	0.32724999999999993
0.16574999999999995	0.18831249999999997	0.21099999999999997	0.23381249999999995	0.25675	0.2798124999999999	0.30299999999999994	0.32631249999999995	0.34975	0.3733125	0.3969999999999999	0.4208124999999999	0.4447499999999999	0.46881249999999997	0.49299999999999994	0.5173125	0.5417500000000001	0.5663125	0.5910000000000001	0.6158125	0.6407499999999999	0.6658125	0.691	0.7163124999999999	0.7417499999999999	0.7673125000000001	0.793	0.8188125	0.8447499999999999	0.8708125	0.897	0.9233125	0.94975	0.9763124999999999	1.003	1.0298125	1.05675	1.0838125	1.111	1.1383124999999998	1.16575
0.6015625	0.5974375	0.5931875000000001	0.5888125	0.5843125	0.5796875	0.5749375	0.5700624999999999	0.5650625	0.5599375	0.5546874999999999	0.5493125000000001	0.5438124999999999	0.5381875	0.5324374999999999	0.5265625	0.5205624999999999	0.5144375	0.5081875	0.5018125000000001	0.49531249999999993	0.4886875	0.48193749999999996	0.47506249999999994	0.46806250000000005	0.4609375	0.45368749999999997	0.4463125	0.43881249999999994	0.43118749999999995	0.42343750000000013	0.4155625	0.4075624999999998	0.39943749999999995	0.3911875	0.3828125	0.37431250000000005	0.3656875	0.3569375	0.3480624999999999	0.33906250000000004
0.18593749999999992	0.20849999999999994	0.23118749999999993	0.2539999999999999	0.27693749999999995	0.29999999999999993	0.3231874999999999	0.3464999999999999	0.3699375	0.39349999999999996	0.41718749999999993	0.44099999999999995	0.4649374999999999	0.48899999999999993	0.5131874999999999	0.5375	0.5619375	0.5865	0.6111875	0.6359999999999999	0.6609375	0.6859999999999999	0.7111875	0.7364999999999999	0.7619374999999999	0.7875	0.8131875	0.839	0.8649374999999999	0.891	0.9171874999999999	0.9435	0.9699375	0.9965	1.0231875	1.05	1.0769375	1.104	1.1311874999999998	1.1584999999999999	1.1859375
0.621	0.6166874999999999	0.61225	0.6076874999999999	0.603	0.5981875	0.5932499999999999	0.5881875	0.5830000000000001	0.5776874999999999	0.5722499999999999	0.5666875	0.5609999999999999	0.5551875	0.5492499999999999	0.5431875	0.5369999999999999	0.5306874999999999	0.5242499999999999	0.5176875000000001	0.511	0.5041874999999999	0.4972499999999999	0.4901875	0.48300000000000004	0.47568749999999993	0.4682499999999999	0.46068749999999997	0.45299999999999996	0.44518749999999996	0.4372499999999999	0.4291875	0.42099999999999993	0.4126875	0.40424999999999994	0.39568749999999997	0.38699999999999996	0.3781874999999999	0.36924999999999997	0.3601874999999999	0.351
0.207	0.2295625	0.25225000000000003	0.2750625	0.29800000000000004	0.32106250000000003	0.34425	0.3675625	0.39100000000000007	0.41456250000000006	0.43825000000000003	0.4620625	0.486	0.5100625	0.53425	0.5585625000000001	0.5830000000000001	0.6075625	0.6322500000000001	0.6570625	0.682	0.7070625	0.7322500000000001	0.7575624999999999	0.7829999999999999	0.8085625000000001	0.83425	0.8600625000000001	0.886	0.9120625	0.93825	0.9645625000000001	0.9910000000000001	1.0175625000000001	1.0442500000000001	1.0710625000000003	1.098	1.1250625000000003	1.15225	1.1795625	1.207
0.6405625	0.6360625	0.6314375	0.6266875000000001	0.6218125000000001	0.6168125	0.6116875	0.6064375	0.6010625000000002	0.5955625	0.5899375000000001	0.5841875	0.5783124999999999	0.5723125000000001	0.5661875000000001	0.5599375000000001	0.5535625	0.5470625	0.5404375	0.5336875	0.5268125	0.5198125000000001	0.5126875	0.5054375	0.4980625000000001	0.4905625	0.4829375000000001	0.47518749999999993	0.4673125000000001	0.45931250000000007	0.4511875	0.4429375	0.43456249999999996	0.4260625	0.4174375000000001	0.40868750000000004	0.3998125000000001	0.3908125	0.3816875	0.3724375000000001	0.36306250000000007
0.22893749999999996	0.25149999999999995	0.2741875	0.29699999999999993	0.3199375	0.34299999999999997	0.36618749999999994	0.38949999999999996	0.4129375	0.4365	0.46018749999999997	0.484	0.5079374999999999	0.532	0.5561875	0.5805	0.6049375	0.6295000000000001	0.6541875	0.6789999999999999	0.7039375	0.729	0.7541875	0.7795	0.8049374999999999	0.8305	0.8561875	0.882	0.9079374999999998	0.9339999999999999	0.9601875	0.9865	1.0129375	1.0394999999999999	1.0661874999999998	1.093	1.1199375	1.147	1.1741875	1.2015	1.2289375
0.6602499999999999	0.6555624999999998	0.6507499999999999	0.6458124999999999	0.6407499999999999	0.6355624999999999	0.63025	0.6248124999999999	0.61925	0.6135624999999999	0.6077499999999999	0.6018125	0.5957499999999999	0.5895625	0.5832499999999999	0.5768125	0.5702499999999998	0.5635625	0.55675	0.5498124999999999	0.54275	0.5355625	0.5282499999999999	0.5208124999999999	0.51325	0.5055624999999999	0.49774999999999997	0.4898125	0.48175000000000007	0.4735625	0.46524999999999994	0.45681249999999995	0.4482499999999999	0.43956249999999997	0.43075	0.42181250000000003	0.4127500000000001	0.4035625	0.39425	0.3848125	0.37525
0.2517499999999999	0.2743124999999999	0.29699999999999993	0.31981249999999994	0.34274999999999994	0.3658124999999999	0.3889999999999999	0.4123124999999999	0.43574999999999997	0.45931249999999996	0.4829999999999999	0.5068124999999999	0.5307499999999999	0.5548124999999999	0.579	0.6033124999999999	0.62775	0.6523125	0.677	0.7018125	0.72675	0.7518125	0.7769999999999999	0.8023124999999999	0.8277499999999999	0.8533124999999999	0.8789999999999999	0.9048124999999999	0.9307499999999999	0.9568124999999998	0.9829999999999999	1.0093124999999998	1.03575	1.0623125	1.089	1.1158124999999999	1.14275	1.1698125	1.1969999999999998	1.2243124999999997	1.25175
0.6800625	0.6751874999999999	0.6701875	0.6650625	0.6598125	0.6544375	0.6489375000000001	0.6433125	0.6375625	0.6316875	0.6256875	0.6195624999999999	0.6133125	0.6069375	0.6004375000000001	0.5938125000000001	0.5870624999999999	0.5801875	0.5731875	0.5660625000000001	0.5588124999999999	0.5514374999999999	0.5439375	0.5363125	0.5285625	0.5206875	0.5126875	0.5045624999999999	0.49631250000000005	0.4879375000000001	0.47943750000000007	0.4708125	0.46206250000000004	0.4531875000000001	0.44418750000000007	0.4350625	0.42581250000000004	0.4164375	0.40693750000000006	0.39731249999999996	0.38756250000000003
0.27543749999999995	0.298	0.32068749999999996	0.34349999999999997	0.36643749999999997	0.38949999999999996	0.41268749999999993	0.43599999999999994	0.4594375	0.483	0.5066875	0.5305	0.5544374999999999	0.5785	0.6026874999999999	0.627	0.6514375	0.676	0.7006875	0.7254999999999999	0.7504375	0.7755	0.8006874999999999	0.826	0.8514375	0.8769999999999999	0.9026875	0.9285	0.9544374999999999	0.9804999999999999	1.0066875	1.0330000000000001	1.0594375	1.086	1.1126875	1.1395000000000002	1.1664375	1.1935	1.2206875	1.248	1.2754375
0.7	0.6949374999999999	0.68975	0.6844374999999999	0.6789999999999999	0.6734374999999999	0.66775	0.6619375	0.656	0.6499375	0.6437499999999999	0.6374375	0.6309999999999999	0.6244375	0.6177499999999999	0.6109375	0.6039999999999999	0.5969374999999999	0.5897499999999999	0.5824375	0.575	0.5674374999999999	0.55975	0.5519375	0.544	0.5359375	0.52775	0.5194374999999999	0.511	0.5024375	0.4937500000000001	0.48493749999999997	0.47599999999999987	0.4669375	0.45775	0.4484375	0.439	0.42943749999999997	0.41975	0.4099374999999999	0.4
0.29999999999999993	0.3225624999999999	0.34524999999999995	0.36806249999999996	0.39099999999999996	0.4140624999999999	0.4372499999999999	0.46056249999999993	0.484	0.5075624999999999	0.5312499999999999	0.5550624999999999	0.579	0.6030625	0.62725	0.6515624999999999	0.676	0.7005625	0.7252500000000001	0.7500625	0.7749999999999999	0.8000625	0.82525	0.8505624999999999	0.8759999999999999	0.9015624999999999	0.9272499999999999	0.9530625	0.9789999999999998	1.0050624999999997	1.03125	1.0575625	1.084	1.1105625	1.1372499999999999	1.1640625	1.1909999999999998	1.2180625	1.24525	1.2725624999999998	1.2999999999999998
