0.32	1.0	1.0 1.0 1.0
0.356772377388035	0.9950775696712809	0.9998146404941773	0.8480474983474393	0.9999999999997253
0.37398322444783516	0.9998584013243011	1.0000095403085567	0.8480474983474393	0.9999999999997253
0.38959240123039524	1.0029460261968561	0.9999999999997253	0.8480474983474393	0.9999999999997253
0.40392151365532114	1.0032237922372031	0.9999999999997252	0.8480474983474393	0.9999999999997253
0.41722257286366754	0.9985692300242841	0.9985705491351715	0.15195250165256066	0.999999928381402
0.429697345906363	1.0041157461504913	1.0041158530958212	0.15195250165256066	0.999999928381402
0.44151085568950493	0.9989211035079376	0.9989203044546677	0.15195250165256066	0.999999928381402
0.4528010509815823	0.9787335278755286	0.9787322510903655	0.15195250165256066	0.999999928381402
0.46368592153852417	1.0214274513622361	0.9999492420893517	0.0045473127979305805	0.9999492420893518
0.4742688878808664	0.9132553194282791	0.9162397164512683	0.0045473127979305805	0.9999492420893518
0.4846430229038361	0.7902105916383108	0.797549490101444	0.0045473127979305805	0.9999492420893518
0.49489449359172993	0.6576979050658278	0.6697695836524294	0.0045473127979305805	0.9999492420893518
0.5051055064082701	0.342280533155959	0.33022066038754977	5.0757910648235864e-5	0.9954526872020695
0.5153569770961639	0.20978332165122215	0.2024502708195595	5.0757910648235864e-5	0.9954526872020695
0.5257311121191336	0.08675498989417398	0.08377004524456587	5.0757910648235864e-5	0.9954526872020695
0.5363140784614758	-0.02140164679224192	5.0757910648235485e-5	5.0757910648235864e-5	0.9954526872020695
0.5471989490184177	0.021255777593693802	0.021254501155336548	7.161859794102554e-8	0.8480474983474393
0.5584891443104951	0.0010801839116609305	0.001079384826277592	7.161859794102554e-8	0.8480474983474393
0.570302654093637	-0.004109930960589371	-0.004109824838085828	7.161859794102554e-8	0.8480474983474393
0.5827774271363324	0.0014341339903277013	0.0014354509386891063	7.161859794102554e-8	0.8480474983474393
0.5960784863446789	-0.003226992793234743	-0.003227263272662101	2.7466917629226373e-13	0.15195250165256066
0.6104075987696048	-0.0029477976919174247	-0.0029473415975078527	2.7466917629226373e-13	0.15195250165256066
0.6260167755521648	0.00014020593371823103	0.00014150802787530443	2.7466917629226373e-13	0.15195250165256066
0.6432276226119651	0.004920600057331478	0.004922742552966514	2.7466917629226373e-13	0.15195250165256066
0.66	0.0 0.0 0.0 0.0
